Data Analytics 6600
…
Tidy the following dataset. It consists of a history of quarterly earnings per share of Johnson and Johnson.

df <- matrix(JohnsonJohnson, byrow = TRUE, ncol = 4) %>% 
  as_tibble() %>%
  rename(quarter1 = V1, quarter2 = V2, quarter3 = V3, quarter4 = V4) %>% 
  mutate(year = 1960:1980, stockinfo = "JNJ-NYSE")
df

## # A tibble: 21 × 6
##    quarter1 quarter2 quarter3 quarter4  year stockinfo
##       <dbl>    <dbl>    <dbl>    <dbl> <int>     <chr>
## 1      0.71     0.63     0.85     0.44  1960  JNJ-NYSE
## 2      0.61     0.69     0.92     0.55  1961  JNJ-NYSE
## 3      0.72     0.77     0.92     0.60  1962  JNJ-NYSE
## 4      0.83     0.80     1.00     0.77  1963  JNJ-NYSE
## 5      0.92     1.00     1.24     1.00  1964  JNJ-NYSE
## 6      1.16     1.30     1.45     1.25  1965  JNJ-NYSE
## 7      1.26     1.38     1.86     1.56  1966  JNJ-NYSE
## 8      1.53     1.59     1.83     1.86  1967  JNJ-NYSE
## 9      1.53     2.07     2.34     2.25  1968  JNJ-NYSE
## 10     2.16     2.43     2.70     2.25  1969  JNJ-NYSE
## # ... with 11 more rows
…
