Exploratory Data Analysis | Data Analytics 6600
…
Data Import

Next, use dataset button to get data. I suggest creating a separate folder for this assignment and moving data there. Read section of 8.4 about setting up a project folder with RStudio which is a good practice in managing files.

Open a new R markdown file by going File -> New File -> R markdown. Once it opens, do File -> Save As to save it to your folder. Assuming you have created the project folder and data is in it, to get data into R you need to run

library(readr)
df <- read_csv("movie.csv")

Note the underscore (_) in read_csv and not the dot (.). Type df into console to test that data loaded properly and you should see the following:

df

## # A tibble: 1,794 x 15
##     year      imdb                  title            test clean_test
##  * <int>     <chr>                  <chr>           <chr>      <chr>
##  1  2013 tt1711425          21 &amp; Over          notalk     notalk
##  2  2012 tt1343727               Dredd 3D     ok-disagree         ok
##  3  2013 tt2024544       12 Years a Slave notalk-disagree     notalk
##  4  2013 tt1272878                 2 Guns          notalk     notalk
##  5  2013 tt0453562                     42             men        men
##  6  2013 tt1335975               47 Ronin             men        men
##  7  2013 tt1606378 A Good Day to Die Hard          notalk     notalk
##  8  2013 tt2194499             About Time     ok-disagree         ok
##  9  2013 tt1814621              Admission              ok         ok
## 10  2013 tt1815862            After Earth          notalk     notalk
## # ... with 1,784 more rows, and 10 more variables: binary <chr>,
## #   budget <int>, domgross <chr>, intgross <chr>, code <chr>,
## #   `budget_2013$` <int>, `domgross_2013$` <chr>, `intgross_2013$` <chr>,
## #   `period code` <int>, `decade code` <int>
…
